Ogunmola Problem Set 7 Final
…
age_golf_df

# A tibble: 40 × 2
   age     preference
   <chr>   <chr>     
 1 21-35   Somewhat  
 2 51-65   Not at all
 3 66-plus Very much 
 4 21-35   Not at all
 5 36-50   Somewhat  
 6 21-35   Not at all
 7 36-50   Not at all
 8 66-plus Somewhat  
 9 36-50   Very much 
10 51-65   Very much 
# ℹ 30 more rows
…
